"Auteur","ID","Date","Section"
"1. HERODOTUS Hist. Historiae ",16001,"5 B.C."," Book 4 section 138 line 4"
"2. HERODOTUS Hist. Historiae ",16001,"5 B.C."," Book 6 section 26 line 6"
"3. HERODOTUS Hist. Historiae ",16001,"5 B.C."," Book 7 section 44 line 4"
"4. HERODOTUS Hist. Historiae ",16001,"5 B.C."," Book 7 section 45 line 2"
"5. HERODOTUS Hist. Historiae ",16001,"5 B.C."," Book 7 section 95 line 7"
"6. HERODOTUS Hist. Historiae ",16001,"5 B.C."," Book 7 section 95 line 7"
"7. XENOPHON Hist. Hellenica ",32001,"5-4 B.C."," Book 2 chapter 1 section 18 line 3"
"8. XENOPHON Hist. Hellenica ",32001,"5-4 B.C."," Book 4 chapter 8 section 3 line 8"
"9. XENOPHON Hist. Hellenica ",32001,"5-4 B.C."," Book 4 chapter 8 section 6 line 6"
"10. XENOPHON Hist. Hellenica ",32001,"5-4 B.C."," Book 4 chapter 8 section 35 line 6"
"11. XENOPHON Hist. Hellenica ",32001,"5-4 B.C."," Book 4 chapter 8 section 35 line 9"
"12. XENOPHON Hist. Hellenica ",32001,"5-4 B.C."," Book 4 chapter 8 section 35 line 10"
"13. XENOPHON Hist. Hellenica ",32001,"5-4 B.C."," Book 4 chapter 8 section 37 line 3"
"14. XENOPHON Hist. Hellenica ",32001,"5-4 B.C."," Book 4 chapter 8 section 39 line 7"
"15. XENOPHON Hist. Hellenica ",32001,"5-4 B.C."," Book 5 chapter 1 section 6 line 8"
"16. XENOPHON Hist. Hellenica ",32001,"5-4 B.C."," Book 7 chapter 1 section 27 line 2"
"17. LYSIAS Orat. Fragmenta orationum deperditarum in papyris vel apud scriptores antiquos cum titulo vel tituli indice servata ",540072,"5-4 B.C."," Oration 5 fragment 8 line 5"
"18. DEMOSTHENES Orat. In Aristocratem ",14023,"4 B.C."," Section 159 line 2"
"19. DEMOSTHENES Orat. In Aristocratem ",14023,"4 B.C."," Section 160 line 2"
"20. DEMOSTHENES Orat. In Aristocratem ",14023,"4 B.C."," Section 202 line 4"
"21. AENEAS Tact. Poliorcetica ",58001,"4 B.C."," Chapter 28 section 6 line 1"
"22. ARISTOTELES et CORPUS ARISTOTELICUM Phil. Oeconomica ",86029,"4 B.C."," Bekker page 1349a line 3"
"23. BEROSUS Astrol. et Hist. Fragmenta ",1222003,"4-3 B.C."," Fragment 1b line 15"
"24. BEROSUS Astrol. et Hist. Fragmenta ",1222003,"4-3 B.C."," Fragment 6 line 11"
"25. BEROSUS Astrol. et Hist. Fragmenta ",1222003,"4-3 B.C."," Fragment 6 line 24"
"26. CLEANTHES Phil. Testimonia et fragmenta ",1269002,"4-3 B.C."," Fragment 545 line 2"
"27. CLEANTHES Phil. Testimonia et fragmenta ",1269002,"4-3 B.C."," Fragment 545 line 6"
"28. MEGASTHENES Hist. Fragmenta ",1489003,"4-3 B.C."," Fragment 22c line 2"
"29. EUDOXUS Comic. Fragmenta ",399001,"4-3 B.C.?"," Fragment 2 line 1"
"30. NEANTHES Hist. Fragmenta ",1525003,"3 B.C."," Fragment 35 line 2"
"31. NEANTHES Hist. Fragmenta ",1525003,"3 B.C."," Fragment 35 line 8"
"32. POLYBIUS Hist. Historiae ",543001,"3-2 B.C."," Book 5 chapter 111 section 5 line 2"
"33. POLYBIUS Hist. Historiae ",543001,"3-2 B.C."," Book 16 chapter 29 section 13 line 2"
"34. POLYBIUS Hist. Historiae ",543001,"3-2 B.C."," Book 16 chapter 30 section 1 line 2"
"35. POLYBIUS Hist. Historiae ",543001,"3-2 B.C."," Book 16 chapter 31 section 1 line 2"
"36. POLYBIUS Hist. Historiae ",543001,"3-2 B.C."," Book 16 chapter 32 section 2 line 1"
"37. POLYBIUS Hist. Historiae ",543001,"3-2 B.C."," Book 16 chapter 32 section 4 line 1"
"38. POLYBIUS Hist. Historiae ",543001,"3-2 B.C."," Book 16 chapter 32 section 5 line 1"
"39. POLYBIUS Hist. Historiae ",543001,"3-2 B.C."," Book 16 chapter 32 section 5 line 5"
"40. POLYBIUS Hist. Historiae ",543001,"3-2 B.C."," Book 16 chapter 33 section 2 line 4"
"41. POLYBIUS Hist. Historiae ",543001,"3-2 B.C."," Book 16 chapter 34 section 1 line 2"
"42. POLYBIUS Hist. Historiae ",543001,"3-2 B.C."," Book 16 chapter 34 section 2 line 3"
"43. POLYBIUS Hist. Historiae ",543001,"3-2 B.C."," Book 16 chapter 34 section 5 line 4"
"44. POLYBIUS Hist. Historiae ",543001,"3-2 B.C."," Book 16 chapter 34 section 9 line 1"
"45. POLYBIUS Hist. Historiae ",543001,"3-2 B.C."," Book 16 chapter 34 section 11 line 1"
"46. BITON Mech. Κατασκευαὶ πολεμικῶν ὀργάνων καὶ καταπαλτικῶν ",1226001,"3/2 B.C."," Section 3 line 4"
"47. APOLLODORUS Gramm. Fragmenta ",549005,"2 B.C."," Fragment 67c line 21"
"48. APOLLODORUS Gramm. Fragmenta ",549005,"2 B.C."," Fragment 67c line 24"
"49. APOLLODORUS Gramm. Fragmenta ",549005,"2 B.C."," Fragment 67d line 5"
"50. APOLLODORUS Gramm. Fragmenta ",549005,"2 B.C."," Fragment 67e line 9"
"51. APOLLODORUS Gramm. Fragmenta ",549005,"2 B.C."," Fragment 67e line 22"
"52. [ARISTIDES] Hist. Fragmenta ",2194002,"2 B.C."," Fragment 31 line 2"
"53. DIODORUS SICULUS Hist. Bibliotheca historica (lib. 1-20) ",60001,"1 B.C."," Book 13 chapter 49 section 5 line 6"
"54. STRABO Geogr. Geographica ",99001,"1 B.C.-A.D. 1"," Book 13 chapter 1 section 23 line 1"
"55. STRABO Geogr. Geographica ",99001,"1 B.C.-A.D. 1"," Book 13 chapter 1 section 23 line 2"
"56. ANONYMUS LONDINENSIS Med. Iatrica (fort. auctore Menone) (Brit. Mus. inv. 137) ",643001,"A.D. 1"," Section 7 line 41"
"57. PLUTARCHUS Biogr. et Phil. Alcibiades ",7015,"A.D. 1-2"," Chapter 29 section 4 line 3"
"58. PLUTARCHUS Biogr. et Phil. Alcibiades ",7015,"A.D. 1-2"," Chapter 36 section 2 line 7"
"59. (H)EREN(N)IUS PHILO Gramm. et Hist. Fragmenta ",1416006,"A.D. 1-2"," Volume-Jacoby#-F 3c,790,F fragment 13 line 1"
"60. (H)EREN(N)IUS PHILO Gramm. et Hist. Fragmenta ",1416008,"A.D. 1-2"," Fragment 10 line 1"
"61. Aelius HERODIANUS et Pseudo-HERODIANUS Gramm. et Rhet. De prosodia catholica ",87001,"A.D. 2"," Part+volume 3,1 page 181 line 7"
"62. Aelius HERODIANUS et Pseudo-HERODIANUS Gramm. et Rhet. Περὶ παρωνύμων ",87026,"A.D. 2"," Part+volume 3,2 page 886 line 32"
"63. Aelius HERODIANUS et Pseudo-HERODIANUS Gramm. et Rhet. Partitiones [Sp.?] (= Ἐπιμερισμοί) (e codd. Paris. 2543 + 2570) ",87036,"A.D. 2"," Page 174 line 18"
"64. DIOGENIANUS Gramm. Paroemiae (epitome operis sub nomine Diogeniani) (e cod. Mazarinco) ",97001,"A.D. 2"," Centuria 1 section 1 line 1"
"65. DIOGENIANUS Gramm. Paroemiae (epitome operis sub nomine Diogeniani) (e cod. Mazarinco) ",97001,"A.D. 2"," Centuria 1 section 1 line 2"
"66. DIOGENIANUS Gramm. Paroemiae (epitome operis sub nomine Diogeniani) (e cod. Vindob. 133) ",97002,"A.D. 2"," Centuria 1 section 1 line 1"
"67. ZENOBIUS Sophista Epitome collectionum Lucilli Tarrhaei et Didymi ",98001,"A.D. 2"," Centuria 1 section 1 line 1"
"68. ZENOBIUS Sophista Epitome collectionum Lucilli Tarrhaei et Didymi ",98001,"A.D. 2"," Centuria 1 section 1 line 3"
"69. POLYAENUS Rhet. Strategemata ",616001,"A.D. 2"," Book 1 chapter 37 section 1 line 1"
"70. POLYAENUS Rhet. Strategemata ",616001,"A.D. 2"," Book 1 chapter 37 section 1 line 7"
"71. POLYAENUS Rhet. Strategemata ",616001,"A.D. 2"," Book 3 chapter 9 section 44 line 1"
"72. POLYAENUS Rhet. Strategemata ",616001,"A.D. 2"," Book 3 chapter 9 section 44 line 3"
"73. POLYAENUS Rhet. Strategemata ",616001,"A.D. 2"," Book 3 chapter 9 section 44 line 7"
"74. POLYAENUS Rhet. Excerpta Polyaeni ",616002,"A.D. 2"," Excerpt 24 section 3 line 1"
"75. POLYAENUS Rhet. Excerpta Polyaeni ",616002,"A.D. 2"," Excerpt 24 section 3 line 3"
"76. PAUSANIAS Attic. Ἀττικῶν ὀνομάτων συναγωγή ",1569001,"A.D. 2"," Alphabetic letter alpha entry 3 line 2"
"77. PAUSANIAS Attic. Ἀττικῶν ὀνομάτων συναγωγή ",1569001,"A.D. 2"," Alphabetic letter alpha entry 3 line 3"
"78. ABYDENUS Hist. Fragmenta ",116002,"A.D. 2?"," Fragment 1 line 1"
"79. ABYDENUS Hist. Fragmenta ",116002,"A.D. 2?"," Fragment 5 line t"
"80. ABYDENUS Hist. Fragmenta ",116002,"A.D. 2?"," Fragment 9 line 2"
"81. ABYDENUS Hist. Fragmenta ",116002,"A.D. 2?"," Fragment 10a line 5"
"82. ATHENAEUS Soph. Deipnosophistae ",8001,"A.D. 2-3"," Book 12 Kaibel paragraph 28 line 5"
"83. ATHENAEUS Soph. Deipnosophistae ",8001,"A.D. 2-3"," Book 12 Kaibel paragraph 28 line 23"
"84. ATHENAEUS Soph. Deipnosophistae ",8001,"A.D. 2-3"," Book 12 Kaibel paragraph 48 line 5"
"85. ATHENAEUS Soph. Deipnosophistae ",8001,"A.D. 2-3"," Book 13 Kaibel paragraph 31 line 13"
"86. ATHENAEUS Soph. Deipnosophistae ",8001,"A.D. 2-3"," Book 13 Kaibel paragraph 31 line 19"
"87. ATHENAEUS Soph. Deipnosophistae ",8001,"A.D. 2-3"," Book 13 Kaibel paragraph 34 line 16"
"88. ATHENAEUS Soph. Deipnosophistae ",8001,"A.D. 2-3"," Book 14 Kaibel paragraph 47 line 16"
"89. ATHENAEUS Soph. Deipnosophistae (epitome) ",8003,"A.D. 2-3"," Volume 2,2 page 82 line 11"
"90. ATHENAEUS Soph. Deipnosophistae (epitome) ",8003,"A.D. 2-3"," Volume 2,2 page 88 line 7"
"91. ATHENAEUS Soph. Deipnosophistae (epitome) ",8003,"A.D. 2-3"," Volume 2,2 page 108 line 24"
"92. ATHENAEUS Soph. Deipnosophistae (epitome) ",8003,"A.D. 2-3"," Volume 2,2 page 109 line 12"
"93. ATHENAEUS Soph. Deipnosophistae (epitome) ",8003,"A.D. 2-3"," Volume 2,2 page 109 line 20"
"94. CLEMENS ALEXANDRINUS Theol. Paedagogus ",555002,"A.D. 2-3"," Book 2 chapter 1 subchapter 3 section 1 line 5"
"95. EUSEBIUS Scr. Eccl. et Theol. Praeparatio evangelica ",2018001,"A.D. 4"," Book 9 chapter Pin section 1 line 16"
"96. EUSEBIUS Scr. Eccl. et Theol. Praeparatio evangelica ",2018001,"A.D. 4"," Book 9 chapter Pin section 1 line 19"
"97. EUSEBIUS Scr. Eccl. et Theol. Praeparatio evangelica ",2018001,"A.D. 4"," Book 9 chapter Pin section 1 line 50"
"98. EUSEBIUS Scr. Eccl. et Theol. Praeparatio evangelica ",2018001,"A.D. 4"," Book 9 chapter 12 section 1 line 1"
"99. EUSEBIUS Scr. Eccl. et Theol. Praeparatio evangelica ",2018001,"A.D. 4"," Book 9 chapter 12 section 2 line t1"
"100. EUSEBIUS Scr. Eccl. et Theol. Praeparatio evangelica ",2018001,"A.D. 4"," Book 9 chapter 14 section 2 line t1"
"101. EUSEBIUS Scr. Eccl. et Theol. Praeparatio evangelica ",2018001,"A.D. 4"," Book 9 chapter 41 section 1 line 1"
"102. EUSEBIUS Scr. Eccl. et Theol. Praeparatio evangelica ",2018001,"A.D. 4"," Book 9 chapter 41 section 1 line 3t"
"103. LIBANIUS Rhet. et Soph. Epistulae 1-1544 ",2200001,"A.D. 4"," Epistle 119 section 10 line 1"
"104. LIBANIUS Rhet. et Soph. Epistulae 1-1544 ",2200001,"A.D. 4"," Epistle 822 section 1 line 1"
"105. ARCADIUS Gramm. De accentibus [Sp.] ",2116001,"A.D. 4?"," Page 74 line 10"
"106. CYRILLUS Alexandrinus Theol. Contra Julianum (lib. 1-2) ",4090176,"A.D. 4-5"," Book 1 section 6 line 17"
"107. CYRILLUS Alexandrinus Theol. Contra Julianum (lib. 1-2) ",4090176,"A.D. 4-5"," Book 1 section 7 line 8"
"108. CYRILLUS Alexandrinus Theol. Contra Julianum (lib. 1-2) ",4090176,"A.D. 4-5"," Book 1 section 9 line 7"
"109. Joannes STOBAEUS Anthologus Rhet. et Soph. Anthologium ",2037001,"A.D. 5"," Book 4 chapter 34 section 73 line 6"
"110. HESYCHIUS Lexicogr. Lexicon (Α—Ο) ",4085002,"A.D. 5/6"," Alphabetic letter alpha entry 227 line 1"
"111. CONCILIA OECUMENICA (ACO) Epist. et Theol. Synodus Constantinopolitana et Hierosolymitana anno 536 ",5000004,"Varia"," Tome 3 page 65 line 30"
"112. CONCILIA OECUMENICA (ACO) Epist. et Theol. Synodus Constantinopolitana et Hierosolymitana anno 536 ",5000004,"Varia"," Tome 3 page 74 line 10"
"113. STEPHANUS Byzantius Gramm. Ethnica (epitome) ",4028001,"A.D. 6"," Page 10 line 6"
"114. STEPHANUS Byzantius Gramm. Ethnica (epitome) ",4028001,"A.D. 6"," Page 10 line 7"
"115. STEPHANUS Byzantius Gramm. Ethnica (epitome) ",4028001,"A.D. 6"," Page 10 line 9"
"116. STEPHANUS Byzantius Gramm. Ethnica (Libri Α-Γ) ",4028003,"A.D. 6"," Book 1 lemma 16 line 11"
"117. STEPHANUS Byzantius Gramm. Ethnica (Libri Α-Γ) ",4028003,"A.D. 6"," Book 1 lemma 16 line 11"
"118. STEPHANUS Byzantius Gramm. Ethnica (Libri Α-Γ) ",4028003,"A.D. 6"," Book 1 lemma 16 line 14"
"119. GEORGIUS SYNCELLUS Chronogr. Ecloga chronographica ",3045001,"A.D. 8-9"," Page 15 line 2"
"120. GEORGIUS SYNCELLUS Chronogr. Ecloga chronographica ",3045001,"A.D. 8-9"," Page 35 line 13"
"121. GEORGIUS SYNCELLUS Chronogr. Ecloga chronographica ",3045001,"A.D. 8-9"," Page 35 line 16"
"122. GEORGIUS SYNCELLUS Chronogr. Ecloga chronographica ",3045001,"A.D. 8-9"," Page 37 line 17"
"123. GEORGIUS SYNCELLUS Chronogr. Ecloga chronographica ",3045001,"A.D. 8-9"," Page 38 line 30"
"124. GEORGIUS SYNCELLUS Chronogr. Ecloga chronographica ",3045001,"A.D. 8-9"," Page 38 line 34"
"125. GEORGIUS SYNCELLUS Chronogr. Ecloga chronographica ",3045001,"A.D. 8-9"," Page 39 line 1t"
"126. GEORGIUS SYNCELLUS Chronogr. Ecloga chronographica ",3045001,"A.D. 8-9"," Page 40 line 11"
"127. GEORGIUS SYNCELLUS Chronogr. Ecloga chronographica ",3045001,"A.D. 8-9"," Page 40 line 20"
"128. GEORGIUS SYNCELLUS Chronogr. Ecloga chronographica ",3045001,"A.D. 8-9"," Page 40 line 27"
"129. GEORGIUS SYNCELLUS Chronogr. Ecloga chronographica ",3045001,"A.D. 8-9"," Page 45 line 29"
"130. GEORGIUS SYNCELLUS Chronogr. Ecloga chronographica ",3045001,"A.D. 8-9"," Page 46 line 10t"
"131. GEORGIUS SYNCELLUS Chronogr. Ecloga chronographica ",3045001,"A.D. 8-9"," Page 269 line 6"
"132. ANONYMUS LEXICOGRAPHUS Lexicogr. Συναγωγὴ λέξεων χρησίμων ἐκ διαφόρων σοφῶν τε καὶ ῥητόρων πολλῶν (versio codicis B) ",4160002,"A.D. 8/9"," Alphabetic letter alpha lemma 46 line 2"
"133. THEOGNOSTUS Gramm. Canones sive De orthographia ",3128001,"A.D. 9"," Section 362 line 2"
"134. PHOTIUS Lexicogr., Scr. Eccl. et Theol. Bibliotheca ",4040001,"A.D. 9"," Codex 190 Bekker page 153a line 26"
"135. PHOTIUS Lexicogr., Scr. Eccl. et Theol. Lexicon (Α—Δ) ",4040029,"A.D. 9"," Alphabetic letter alpha entry 63 line 2"
"136. PHOTIUS Lexicogr., Scr. Eccl. et Theol. Lexicon (Α—Δ) ",4040029,"A.D. 9"," Alphabetic letter alpha entry 63 line 4"
"137. ACTA MONASTERII LAVRAE Acta, Eccl. et Legal. Judicium Symeonis ecprosopi Thessalonicae et Strymonis (a. 974?) ",5309006,"A.D. 9-15"," Line 15"
"138. LEXICA SEGUERIANA Lexicogr. Glossae rhetoricae (e cod. Coislin. 345) ",4289004,"Varia"," Alphabetic entry alpha page 215 line 6"
"139. LEXICA SEGUERIANA Lexicogr. Glossae rhetoricae (e cod. Coislin. 345) ",4289004,"Varia"," Alphabetic entry alpha page 215 line 8"
"140. LEXICA SEGUERIANA Lexicogr. Collectio verborum utilium e differentibus rhetoribus et sapientibus multis (Σb) (recensio aucta e cod. Coislin. 345) ",4289005,"Varia"," Alphabetic entry alpha page 5 line 12"
"141. CONSTANTINUS VII PORPHYROGENITUS Imperator Hist. et Scr. Eccl. De legationibus ",3023001,"A.D. 10"," Page 40 line 6"
"142. CONSTANTINUS VII PORPHYROGENITUS Imperator Hist. et Scr. Eccl. De legationibus ",3023001,"A.D. 10"," Page 40 line 9"
"143. CONSTANTINUS VII PORPHYROGENITUS Imperator Hist. et Scr. Eccl. De legationibus ",3023001,"A.D. 10"," Page 40 line 21"
"144. CONSTANTINUS VII PORPHYROGENITUS Imperator Hist. et Scr. Eccl. Epistulae ad Theodorum Cyzicenum ",3023027,"A.D. 10"," Epistle 19 line 21"
"145. THEODORUS Cyzicenus Epist. Epistulae ",3158001,"A.D. 10"," Epistle 19 line 21"
"146. SYNAXARIUM ECCLESIAE CONSTANTINOPOLEOS Hagiogr. et Liturg. Synaxarium mensis Maii ",4411009,"A.D. 10"," Day 18 section 1 line 5"
"147. SUDA Lexicogr. Lexicon ",9010001,"A.D. 10"," Alphabetic letter alpha entry 100 line 1"
"148. SUDA Lexicogr. Lexicon ",9010001,"A.D. 10"," Alphabetic letter alpha entry 100 line 2"
"149. SUDA Lexicogr. Lexicon ",9010001,"A.D. 10"," Alphabetic letter alpha entry 100 line 3"
"150. SUDA Lexicogr. Lexicon ",9010001,"A.D. 10"," Alphabetic letter alpha entry 101 line 2"
"151. SUDA Lexicogr. Lexicon ",9010001,"A.D. 10"," Alphabetic letter alpha entry 101 line 3"
"152. SUDA Lexicogr. Lexicon ",9010001,"A.D. 10"," Alphabetic letter pi entry 71 line 1"
"153. ACTA MONASTERII IVIRON Acta, Eccl. et Legal. De venditione agri (a. 1010) ",5303016,"A.D. 10-19"," Line 45"
"154. ETYMOLOGICUM GUDIANUM Lexicogr. Etymologicum Gudianum (ἀάλιον—ζειαί) ",4098001,"A.D. 11"," Alphabetic entry alpha page 8 line 5"
"155. EUSTATHIUS Thessalonicensis Philol. et Scr. Eccl. Commentarii ad Homeri Iliadem ",4083001,"A.D. 12"," Volume 1 page 401 line 9"
"156. EUSTATHIUS Thessalonicensis Philol. et Scr. Eccl. Commentarii ad Homeri Iliadem ",4083001,"A.D. 12"," Volume 1 page 559 line 30"
"157. EUSTATHIUS Thessalonicensis Philol. et Scr. Eccl. Commentarii ad Homeri Iliadem ",4083001,"A.D. 12"," Volume 1 page 577 line 17"
"158. EUSTATHIUS Thessalonicensis Philol. et Scr. Eccl. Commentarium in Dionysii periegetae orbis descriptionem ",4083006,"A.D. 12"," Section 513 line 33"
"159. EUSTATHIUS Thessalonicensis Philol. et Scr. Eccl. Commentarium in Dionysii periegetae orbis descriptionem ",4083006,"A.D. 12"," Section 513 line 36"
"160. Maximus PLANUDES Polyhist. et Theol. Publii Ovidii Nasonis Heroides graece versi ",4146029,"A.D. 13-14"," Epistle 19 line 101"
"161. GERMANUS II Scr. Eccl. Orationes et homiliae ",2938002,"A.D. 13"," Homily 3 page 227 line 3"
"162. Pseudo-ZONARAS Lexicogr. Lexicon ",3136001,"A.D. 13"," Alphabetic letter alpha page 6 line 23"
"163. Pseudo-ZONARAS Lexicogr. Lexicon ",3136001,"A.D. 13"," Alphabetic letter alpha page 6 line 25"
"164. GREGORIUS II Patriarcha Epist., Hagiogr., Paroemiogr., Phil. et Theol. Paroemiae (e cod. Leidense) ",9006002,"A.D. 13"," Centuria 1 section 26 line 1"
"165. GREGORIUS II Patriarcha Epist., Hagiogr., Paroemiogr., Phil. et Theol. Paroemiae (e cod. Leidense) ",9006002,"A.D. 13"," Centuria 1 section 26 line 2"
"166. GREGORIUS II Patriarcha Epist., Hagiogr., Paroemiogr., Phil. et Theol. Paroemiae (e cod. Mosq.) ",9006003,"A.D. 13"," Centuria 1 section 88 line 1"
"167. GREGORIUS II Patriarcha Epist., Hagiogr., Paroemiogr., Phil. et Theol. Paroemiae (e cod. Mosq.) ",9006003,"A.D. 13"," Centuria 1 section 88 line 1"
"168. GREGORIUS II Patriarcha Epist., Hagiogr., Paroemiogr., Phil. et Theol. Paroemiae (e cod. Vat.) ",9006004,"A.D. 13"," Centuria 1 section 2 line 1"
"169. GREGORIUS II Patriarcha Epist., Hagiogr., Paroemiogr., Phil. et Theol. Paroemiae (e cod. Vat.) ",9006004,"A.D. 13"," Centuria 1 section 2 line 2"
"170. Theodorus METOCHITES Phil. et Polyhist. Γνωμικαί σημειώσεις ",3191015,"A.D. 13-14"," Chapter 1 section 3 line 15"
"171. Macarius CHRYSOCEPHALUS Hagiogr., Paroemiogr. et Scr. Eccl. Paroemiae ",9008001,"A.D. 14"," Centuria 1 section 1 line 1"
"172. Michael APOSTOLIUS Paroemiogr. Collectio paroemiarum ",9009001,"A.D. 15"," Centuria 1 section 1 line 1"
"173. Michael APOSTOLIUS Paroemiogr. Collectio paroemiarum ",9009001,"A.D. 15"," Centuria 1 section 1 line 2"
"174. Michael APOSTOLIUS Paroemiogr. Collectio paroemiarum ",9009001,"A.D. 15"," Centuria 1 section 2 line 2"
"175. ANALECTA HYMNICA GRAECA Anthol. et Hymn. Canones Maii ",4354009,"Varia"," Day 17 canon 20 ode Synaxarium line 4"
"176. CONCILIA OECUMENICA (ACO) Epist. et Theol. Concilium universale Constantinopolitanum tertium (680-681). Concilii actiones I-XVIII ",5000009,"Varia"," Document 18 page 796 line 15"
"177. SCHOLIA IN ARISTOPHANEM Schol. Commentarium in ranas (scholia recentiora Tzetzae) ",5014018,"Varia"," Argumentum-dramatis personae-scholion sch ran verse 798a line 33"
"178. SCHOLIA IN HOMERUM Schol. Scholia in Iliadem (scholia vetera) ",5026001,"Varia"," Book of Iliad 2 verse 494-877 line of scholion 31"
